156_0001.MOV#t=170.8-color0-rotate_90.jpg 1
156_0001.MOV#t=69.933333-color0-rotate_270.jpg 1
156_0001.MOV#t=16.466667-color0-f0.jpg 1
156_0001.MOV#t=316.066667-color0-rotate_90.jpg 1
156_0001.MOV#t=218.533333-color0-f1.jpg 1
156_0001.MOV#t=31.933333-color0-rotate_90.jpg 1
156_0001.MOV#t=347.666667-color0-rotate_270.jpg 1
156_0001.MOV#t=79.666667-color0-rotate_270.jpg 1
156_0001.MOV#t=79.666667-color0.jpg 1
156_0001.MOV#t=61.666667-color0-f1.jpg 1
156_0001.MOV#t=133.8-color0-rotate_180.jpg 1
156_0001.MOV#t=192.8-color0-rotate_270.jpg 1
156_0001.MOV#t=41.266667-color0-rotate_180.jpg 1
156_0001.MOV#t=244.666667-color0-f1.jpg 1
156_0001.MOV#t=170.8-color0-rotate_270.jpg 1
156_0001.MOV#t=156.4-color0-rotate_180.jpg 1
156_0001.MOV#t=79.666667-color0-rotate_90.jpg 1
156_0001.MOV#t=180.8-color0-f0.jpg 1
156_0001.MOV#t=98.466667-color0-f0.jpg 1
156_0001.MOV#t=133.8-color0-rotate_270.jpg 1
156_0001.MOV#t=347.666667-color0.jpg 1
156_0001.MOV#t=41.266667-color0-f0.jpg 1
156_0001.MOV#t=25.2-color0-f0.jpg 1
156_0001.MOV#t=113.533333-color0-rotate_180.jpg 1
156_0001.MOV#t=31.933333-color0-f1.jpg 1
156_0001.MOV#t=69.933333-color0-rotate_90.jpg 1
156_0001.MOV#t=54.466667-color0-rotate_90.jpg 1
156_0001.MOV#t=25.933333-color0-rotate_270.jpg 1
156_0001.MOV#t=124-color0.jpg 1
156_0001.MOV#t=31.933333-color0.jpg 1
156_0001.MOV#t=25.933333-color0.jpg 1
156_0001.MOV#t=61.666667-color0-rotate_90.jpg 1
156_0001.MOV#t=69.933333-color0-f1.jpg 1
156_0001.MOV#t=244.666667-color0-rotate_180.jpg 1
156_0001.MOV#t=54.466667-color0-f1.jpg 1
156_0001.MOV#t=373.6-color0-f1.jpg 1
156_0001.MOV#t=180.8-color0-rotate_180.jpg 1
156_0001.MOV#t=31.933333-color0-rotate_180.jpg 1
156_0001.MOV#t=180.8-color0-rotate_90.jpg 1
156_0001.MOV#t=25.933333-color0-rotate_180.jpg 1
156_0001.MOV#t=25.2-color0-f1.jpg 1
156_0001.MOV#t=41.266667-color0-rotate_270.jpg 1
156_0001.MOV#t=274.733333-color0.jpg 1
156_0001.MOV#t=144.466667-color0-rotate_180.jpg 1
156_0001.MOV#t=244.666667-color0.jpg 1
156_0001.MOV#t=231.133333-color0-rotate_90.jpg 1
156_0001.MOV#t=302.933333-color0.jpg 1
156_0001.MOV#t=20.266667-color0-rotate_180.jpg 1
156_0001.MOV#t=89.8-color0.jpg 1
156_0001.MOV#t=25.2-color0-rotate_180.jpg 1
156_0001.MOV#t=156.4-color0-f1.jpg 1
156_0001.MOV#t=16.466667-color0-rotate_180.jpg 1
156_0001.MOV#t=61.666667-color0-rotate_180.jpg 1
156_0001.MOV#t=347.666667-color0-rotate_180.jpg 1
156_0001.MOV#t=41.266667-color0.jpg 1
156_0001.MOV#t=218.533333-color0-rotate_270.jpg 1
156_0001.MOV#t=302.933333-color0-f1.jpg 1
156_0001.MOV#t=218.533333-color0-rotate_90.jpg 1
156_0001.MOV#t=302.933333-color0-rotate_90.jpg 1
156_0001.MOV#t=61.666667-color0-f0.jpg 1
156_0001.MOV#t=113.533333-color0-rotate_270.jpg 1
156_0001.MOV#t=205.2-color0-rotate_180.jpg 1
156_0001.MOV#t=205.2-color0.jpg 1
156_0001.MOV#t=105.6-color0-rotate_90.jpg 1
156_0001.MOV#t=347.666667-color0-rotate_90.jpg 1
156_0001.MOV#t=144.466667-color0-rotate_90.jpg 1
156_0001.MOV#t=156.4-color0-rotate_270.jpg 1
156_0001.MOV#t=260.866667-color0-rotate_180.jpg 1
156_0001.MOV#t=231.133333-color0-f1.jpg 1
156_0001.MOV#t=156.4-color0-f0.jpg 1
156_0001.MOV#t=16.466667-color0-rotate_90.jpg 1
156_0001.MOV#t=244.666667-color0-rotate_90.jpg 1
156_0001.MOV#t=373.6-color0-rotate_90.jpg 1
156_0001.MOV#t=316.066667-color0-rotate_270.jpg 1
156_0001.MOV#t=133.8-color0-f0.jpg 1
156_0001.MOV#t=231.133333-color0-rotate_180.jpg 1
156_0001.MOV#t=360.066667-color0-rotate_180.jpg 1
156_0001.MOV#t=274.733333-color0-rotate_90.jpg 1
156_0001.MOV#t=316.066667-color0-f0.jpg 1
156_0001.MOV#t=105.6-color0-f1.jpg 1
156_0001.MOV#t=54.466667-color0-rotate_180.jpg 1
156_0001.MOV#t=25.933333-color0-f0.jpg 1
156_0001.MOV#t=41.266667-color0-f1.jpg 1
156_0001.MOV#t=260.866667-color0-f0.jpg 1
156_0001.MOV#t=105.6-color0-rotate_270.jpg 1
156_0001.MOV#t=231.133333-color0.jpg 1
156_0001.MOV#t=231.133333-color0-rotate_270.jpg 1
156_0001.MOV#t=98.466667-color0-rotate_270.jpg 1
156_0001.MOV#t=25.933333-color0-f1.jpg 1
156_0001.MOV#t=290.6-color0-f0.jpg 1
156_0001.MOV#t=333.733333-color0-rotate_270.jpg 1
156_0001.MOV#t=360.066667-color0-f0.jpg 1
156_0001.MOV#t=89.8-color0-rotate_270.jpg 1
156_0001.MOV#t=290.6-color0-rotate_270.jpg 1
156_0001.MOV#t=170.8-color0.jpg 1
156_0001.MOV#t=124-color0-rotate_180.jpg 1
156_0001.MOV#t=133.8-color0-f1.jpg 1
156_0001.MOV#t=144.466667-color0-f1.jpg 1
156_0001.MOV#t=274.733333-color0-f0.jpg 1
156_0001.MOV#t=25.2-color0-rotate_90.jpg 1
156_0001.MOV#t=333.733333-color0.jpg 1
156_0001.MOV#t=373.6-color0-rotate_270.jpg 1
156_0001.MOV#t=316.066667-color0-f1.jpg 1
156_0001.MOV#t=124-color0-f1.jpg 1
156_0001.MOV#t=144.466667-color0-f0.jpg 1
156_0001.MOV#t=333.733333-color0-rotate_180.jpg 1
156_0001.MOV#t=316.066667-color0.jpg 1
156_0001.MOV#t=98.466667-color0-rotate_180.jpg 1
156_0001.MOV#t=113.533333-color0-rotate_90.jpg 1
156_0001.MOV#t=333.733333-color0-rotate_90.jpg 1
156_0001.MOV#t=302.933333-color0-rotate_180.jpg 1
156_0001.MOV#t=69.933333-color0-rotate_180.jpg 1
156_0001.MOV#t=89.8-color0-rotate_90.jpg 1
156_0001.MOV#t=347.666667-color0-f0.jpg 1
156_0001.MOV#t=302.933333-color0-f0.jpg 1
156_0001.MOV#t=69.933333-color0.jpg 1
156_0001.MOV#t=244.666667-color0-f0.jpg 1
156_0001.MOV#t=316.066667-color0-rotate_180.jpg 1
156_0001.MOV#t=180.8-color0-rotate_270.jpg 1
156_0001.MOV#t=89.8-color0-rotate_180.jpg 1
156_0001.MOV#t=205.2-color0-f0.jpg 1
156_0001.MOV#t=373.6-color0-f0.jpg 1
156_0001.MOV#t=192.8-color0-rotate_90.jpg 1
156_0001.MOV#t=79.666667-color0-f1.jpg 1
156_0001.MOV#t=98.466667-color0-rotate_90.jpg 1
156_0001.MOV#t=170.8-color0-f1.jpg 1
156_0001.MOV#t=218.533333-color0-f0.jpg 1
156_0001.MOV#t=124-color0-rotate_270.jpg 1
156_0001.MOV#t=113.533333-color0-f1.jpg 1
156_0001.MOV#t=274.733333-color0-f1.jpg 1
156_0001.MOV#t=20.266667-color0-rotate_270.jpg 1
156_0001.MOV#t=373.6-color0-rotate_180.jpg 1
156_0001.MOV#t=290.6-color0-f1.jpg 1
156_0001.MOV#t=260.866667-color0-f1.jpg 1
156_0001.MOV#t=360.066667-color0-rotate_270.jpg 1
156_0001.MOV#t=373.6-color0.jpg 1
